<?xml version="1.0" encoding="UTF-8"?>
<testng-results ignored="0" total="5" passed="5" failed="0" skipped="0">
  <reporter-output>
  </reporter-output>
  <suite started-at="2024-01-04T09:32:45 IST" name="RestAPI_Sprint2_Suite" finished-at="2024-01-04T09:32:51 IST" duration-ms="6319">
    <groups>
    </groups>
    <test started-at="2024-01-04T09:32:45 IST" name="Test" finished-at="2024-01-04T09:32:51 IST" duration-ms="6319">
      <class name="API_TestSuite.Patch_TestScript">
        <test-method is-config="true" signature="patch_test_setup()[pri:0, instance:API_TestSuite.Patch_TestScript@4d9e68d0]" started-at="2024-01-04T09:32:45 IST" name="patch_test_setup" finished-at="2024-01-04T09:32:45 IST" duration-ms="93" status="PASS">
          <reporter-output>
          </reporter-output>
        </test-method> <!-- patch_test_setup -->
        <test-method signature="patch_test_executor()[pri:0, instance:API_TestSuite.Patch_TestScript@4d9e68d0]" started-at="2024-01-04T09:32:47 IST" name="patch_test_executor" finished-at="2024-01-04T09:32:49 IST" duration-ms="2689" status="PASS">
          <reporter-output>
          </reporter-output>
        </test-method> <!-- patch_test_executor -->
        <test-method is-config="true" signature="patch_test_teardown()[pri:0, instance:API_TestSuite.Patch_TestScript@4d9e68d0]" started-at="2024-01-04T09:32:51 IST" name="patch_test_teardown" finished-at="2024-01-04T09:32:51 IST" duration-ms="3" status="PASS">
          <reporter-output>
          </reporter-output>
        </test-method> <!-- patch_test_teardown -->
      </class> <!-- API_TestSuite.Patch_TestScript -->
      <class name="API_TestSuite.Get_TestScript">
        <test-method is-config="true" signature="get_test_setup()[pri:0, instance:API_TestSuite.Get_TestScript@1d9b7cce]" started-at="2024-01-04T09:32:45 IST" name="get_test_setup" finished-at="2024-01-04T09:32:45 IST" duration-ms="2" status="PASS">
          <reporter-output>
          </reporter-output>
        </test-method> <!-- get_test_setup -->
        <test-method signature="get_test_executor()[pri:0, instance:API_TestSuite.Get_TestScript@1d9b7cce]" started-at="2024-01-04T09:32:45 IST" name="get_test_executor" finished-at="2024-01-04T09:32:47 IST" duration-ms="1810" status="PASS">
          <reporter-output>
          </reporter-output>
        </test-method> <!-- get_test_executor -->
        <test-method is-config="true" signature="get_test_teardown()[pri:0, instance:API_TestSuite.Get_TestScript@1d9b7cce]" started-at="2024-01-04T09:32:51 IST" name="get_test_teardown" finished-at="2024-01-04T09:32:51 IST" duration-ms="3" status="PASS">
          <reporter-output>
          </reporter-output>
        </test-method> <!-- get_test_teardown -->
      </class> <!-- API_TestSuite.Get_TestScript -->
      <class name="API_TestSuite.Delete_TestScript">
        <test-method is-config="true" signature="delete_test_setup()[pri:0, instance:API_TestSuite.Delete_TestScript@42e99e4a]" started-at="2024-01-04T09:32:45 IST" name="delete_test_setup" finished-at="2024-01-04T09:32:45 IST" duration-ms="3" status="PASS">
          <reporter-output>
          </reporter-output>
        </test-method> <!-- delete_test_setup -->
        <test-method signature="delete_test_executor()[pri:0, instance:API_TestSuite.Delete_TestScript@42e99e4a]" started-at="2024-01-04T09:32:49 IST" name="delete_test_executor" finished-at="2024-01-04T09:32:51 IST" duration-ms="1699" status="PASS">
          <reporter-output>
          </reporter-output>
        </test-method> <!-- delete_test_executor -->
        <test-method is-config="true" signature="delete_test_teardown()[pri:0, instance:API_TestSuite.Delete_TestScript@42e99e4a]" started-at="2024-01-04T09:32:51 IST" name="delete_test_teardown" finished-at="2024-01-04T09:32:51 IST" duration-ms="4" status="PASS">
          <reporter-output>
          </reporter-output>
        </test-method> <!-- delete_test_teardown -->
      </class> <!-- API_TestSuite.Delete_TestScript -->
    </test> <!-- Test -->
  </suite> <!-- RestAPI_Sprint2_Suite -->
  <suite started-at="2024-01-04T09:32:34 IST" name="RestAPI_Sprint1_Suite" finished-at="2024-01-04T09:32:44 IST" duration-ms="9735">
    <groups>
    </groups>
    <test started-at="2024-01-04T09:32:34 IST" name="Test" finished-at="2024-01-04T09:32:44 IST" duration-ms="9735">
      <class name="API_TestSuite.Post_TestScript">
        <test-method is-config="true" signature="post_test_setup()[pri:0, instance:API_TestSuite.Post_TestScript@31368b99]" started-at="2024-01-04T09:32:35 IST" name="post_test_setup" finished-at="2024-01-04T09:32:36 IST" duration-ms="969" status="PASS">
          <reporter-output>
          </reporter-output>
        </test-method> <!-- post_test_setup -->
        <test-method signature="post_test_executor()[pri:0, instance:API_TestSuite.Post_TestScript@31368b99]" started-at="2024-01-04T09:32:41 IST" name="post_test_executor" finished-at="2024-01-04T09:32:44 IST" duration-ms="2743" status="PASS">
          <reporter-output>
          </reporter-output>
        </test-method> <!-- post_test_executor -->
        <test-method is-config="true" signature="post_test_teardown()[pri:0, instance:API_TestSuite.Post_TestScript@31368b99]" started-at="2024-01-04T09:32:44 IST" name="post_test_teardown" finished-at="2024-01-04T09:32:44 IST" duration-ms="6" status="PASS">
          <reporter-output>
          </reporter-output>
        </test-method> <!-- post_test_teardown -->
      </class> <!-- API_TestSuite.Post_TestScript -->
      <class name="API_TestSuite.Put_TestScript">
        <test-method is-config="true" signature="put_test_setup()[pri:0, instance:API_TestSuite.Put_TestScript@1139b2f3]" started-at="2024-01-04T09:32:36 IST" name="put_test_setup" finished-at="2024-01-04T09:32:36 IST" duration-ms="61" status="PASS">
          <reporter-output>
          </reporter-output>
        </test-method> <!-- put_test_setup -->
        <test-method signature="put_test_executor()[pri:0, instance:API_TestSuite.Put_TestScript@1139b2f3]" started-at="2024-01-04T09:32:36 IST" name="put_test_executor" finished-at="2024-01-04T09:32:41 IST" duration-ms="5524" status="PASS">
          <reporter-output>
          </reporter-output>
        </test-method> <!-- put_test_executor -->
        <test-method is-config="true" signature="put_test_teardown()[pri:0, instance:API_TestSuite.Put_TestScript@1139b2f3]" started-at="2024-01-04T09:32:44 IST" name="put_test_teardown" finished-at="2024-01-04T09:32:44 IST" duration-ms="2" status="PASS">
          <reporter-output>
          </reporter-output>
        </test-method> <!-- put_test_teardown -->
      </class> <!-- API_TestSuite.Put_TestScript -->
    </test> <!-- Test -->
  </suite> <!-- RestAPI_Sprint1_Suite -->
  <suite started-at="2024-01-04T09:32:51 IST" name="RestAPI_TestSuite" finished-at="2024-01-04T09:32:51 IST" duration-ms="0">
    <groups>
    </groups>
  </suite> <!-- RestAPI_TestSuite -->
</testng-results>
